…
models <- models %>% 
  mutate(dist = purrr::map2_dbl(a1, a2, sim1_dist))
```

```
## Warning: package 'bindrcpp' was built under R version 3.4.1
```

```r
models
```

```
## # A tibble: 250 x 3
##             a1         a2      dist
##          <dbl>      <dbl>     <dbl>
##  1  23.9211084  3.7567791 29.565443
##  2  -4.9840238  1.3876285 13.170060
##  3  38.4230365  4.9198195 50.696962
##  4  19.0230184  2.0813172 15.116809
##  5  -6.5553726  3.1760809  6.003425
##  6   6.6822736  1.7849441  2.471017
##  7 -10.1665293 -1.9100896 37.983303
##  8   0.5769674 -3.6462023 38.678896
##  9  39.7944930 -0.6966369 22.031720
## 10 -12.1133943  0.5233774 25.215407
## # ... with 240 more rows
```
…
# 23.3.2 Residuals


```r
sim1 <- sim1 %>% 
  add_residuals(sim1_mod)
sim1
```

```
## # A tibble: 30 x 3
##        x         y        resid
##    <int>     <dbl>        <dbl>
##  1     1  4.199913 -2.072442018
##  2     1  7.510634  1.238279125
##  3     1  2.125473 -4.146882207
##  4     2  8.988857  0.664969362
##  5     2 10.243105  1.919217378
##  6     2 11.296823  2.972935148
##  7     3  7.356365 -3.019056466
##  8     3 10.505349  0.129928252
##  9     3 10.511601  0.136179642
## 10     4 12.434589  0.007634878
## # ... with 20 more rows
```
…
