…
## 25.2.1 Nested Data


```r
by_country <- gapminder %>% 
  group_by(country, continent) %>% 
  nest()

by_country
```

```
## # A tibble: 142 x 3
##        country continent              data
##         <fctr>    <fctr>            <list>
##  1 Afghanistan      Asia <tibble [12 x 4]>
##  2     Albania    Europe <tibble [12 x 4]>
##  3     Algeria    Africa <tibble [12 x 4]>
##  4      Angola    Africa <tibble [12 x 4]>
##  5   Argentina  Americas <tibble [12 x 4]>
##  6   Australia   Oceania <tibble [12 x 4]>
##  7     Austria    Europe <tibble [12 x 4]>
##  8     Bahrain      Asia <tibble [12 x 4]>
##  9  Bangladesh      Asia <tibble [12 x 4]>
## 10     Belgium    Europe <tibble [12 x 4]>
## # ... with 132 more rows
```
…
```r
country_model <- function(df) {
  lm(lifeExp ~ year, data = df)
}

# The data frames are in a list, so we can use purrr:map()
models <- map(by_country$data, country_model)

by_country <- by_country %>% 
  mutate(model = map(data, country_model))
by_country
```

```
## # A tibble: 142 x 4
##        country continent              data    model
##         <fctr>    <fctr>            <list>   <list>
##  1 Afghanistan      Asia <tibble [12 x 4]> <S3: lm>
##  2     Albania    Europe <tibble [12 x 4]> <S3: lm>
##  3     Algeria    Africa <tibble [12 x 4]> <S3: lm>
##  4      Angola    Africa <tibble [12 x 4]> <S3: lm>
##  5   Argentina  Americas <tibble [12 x 4]> <S3: lm>
##  6   Australia   Oceania <tibble [12 x 4]> <S3: lm>
##  7     Austria    Europe <tibble [12 x 4]> <S3: lm>
##  8     Bahrain      Asia <tibble [12 x 4]> <S3: lm>
##  9  Bangladesh      Asia <tibble [12 x 4]> <S3: lm>
## 10     Belgium    Europe <tibble [12 x 4]> <S3: lm>
## # ... with 132 more rows
```

## 25.2.3 Unnesting

Add residuals to each data / model pair. We have 142 data frames and 142 models

```r
by_country <- by_country %>% 
  mutate(
    resids = map2(data, model, add_residuals)
  )
by_country
```

```
## # A tibble: 142 x 5
##        country continent              data    model            resids
##         <fctr>    <fctr>            <list>   <list>            <list>
##  1 Afghanistan      Asia <tibble [12 x 4]> <S3: lm> <tibble [12 x 5]>
##  2     Albania    Europe <tibble [12 x 4]> <S3: lm> <tibble [12 x 5]>
##  3     Algeria    Africa <tibble [12 x 4]> <S3: lm> <tibble [12 x 5]>
##  4      Angola    Africa <tibble [12 x 4]> <S3: lm> <tibble [12 x 5]>
##  5   Argentina  Americas <tibble [12 x 4]> <S3: lm> <tibble [12 x 5]>
##  6   Australia   Oceania <tibble [12 x 4]> <S3: lm> <tibble [12 x 5]>
##  7     Austria    Europe <tibble [12 x 4]> <S3: lm> <tibble [12 x 5]>
##  8     Bahrain      Asia <tibble [12 x 4]> <S3: lm> <tibble [12 x 5]>
##  9  Bangladesh      Asia <tibble [12 x 4]> <S3: lm> <tibble [12 x 5]>
## 10     Belgium    Europe <tibble [12 x 4]> <S3: lm> <tibble [12 x 5]>
## # ... with 132 more rows
```

```r
resids <- unnest(by_country, resids)
resids
```

```
## # A tibble: 1,704 x 7
##        country continent  year lifeExp      pop gdpPercap       resid
##         <fctr>    <fctr> <int>   <dbl>    <int>     <dbl>       <dbl>
##  1 Afghanistan      Asia  1952  28.801  8425333  779.4453 -1.10629487
##  2 Afghanistan      Asia  1957  30.332  9240934  820.8530 -0.95193823
##  3 Afghanistan      Asia  1962  31.997 10267083  853.1007 -0.66358159
##  4 Afghanistan      Asia  1967  34.020 11537966  836.1971 -0.01722494
##  5 Afghanistan      Asia  1972  36.088 13079460  739.9811  0.67413170
##  6 Afghanistan      Asia  1977  38.438 14880372  786.1134  1.64748834
##  7 Afghanistan      Asia  1982  39.854 12881816  978.0114  1.68684499
##  8 Afghanistan      Asia  1987  40.822 13867957  852.3959  1.27820163
##  9 Afghanistan      Asia  1992  41.674 16317921  649.3414  0.75355828
## 10 Afghanistan      Asia  1997  41.763 22227415  635.3414 -0.53408508
## # ... with 1,694 more rows
```
…
```r
glance <- by_country %>% 
  mutate(glance = map(model, broom::glance)) %>% 
  unnest(glance, .drop = TRUE)
glance
```

```
## # A tibble: 142 x 13
##        country continent r.squared adj.r.squared     sigma  statistic
##         <fctr>    <fctr>     <dbl>         <dbl>     <dbl>      <dbl>
##  1 Afghanistan      Asia 0.9477123     0.9424835 1.2227880  181.24941
##  2     Albania    Europe 0.9105778     0.9016355 1.9830615  101.82901
##  3     Algeria    Africa 0.9851172     0.9836289 1.3230064  661.91709
##  4      Angola    Africa 0.8878146     0.8765961 1.4070091   79.13818
##  5   Argentina  Americas 0.9955681     0.9951249 0.2923072 2246.36635
##  6   Australia   Oceania 0.9796477     0.9776125 0.6206086  481.34586
##  7     Austria    Europe 0.9921340     0.9913474 0.4074094 1261.29629
##  8     Bahrain      Asia 0.9667398     0.9634138 1.6395865  290.65974
##  9  Bangladesh      Asia 0.9893609     0.9882970 0.9766908  929.92637
## 10     Belgium    Europe 0.9945406     0.9939946 0.2929025 1821.68840
## # ... with 132 more rows, and 7 more variables: p.value <dbl>, df <int>,
## #   logLik <dbl>, AIC <dbl>, BIC <dbl>, deviance <dbl>, df.residual <int>
```
…
by_country <- by_country %>%
  mutate(model = map(data, country_model))

by_country <- by_country %>% 
  mutate(
    resids = map2(data, model, add_residuals)
  )
by_country
```

```
## # A tibble: 142 x 5
##        country continent              data    model            resids
##         <fctr>    <fctr>            <list>   <list>            <list>
##  1 Afghanistan      Asia <tibble [12 x 4]> <S3: lm> <tibble [12 x 5]>
##  2     Albania    Europe <tibble [12 x 4]> <S3: lm> <tibble [12 x 5]>
##  3     Algeria    Africa <tibble [12 x 4]> <S3: lm> <tibble [12 x 5]>
##  4      Angola    Africa <tibble [12 x 4]> <S3: lm> <tibble [12 x 5]>
##  5   Argentina  Americas <tibble [12 x 4]> <S3: lm> <tibble [12 x 5]>
##  6   Australia   Oceania <tibble [12 x 4]> <S3: lm> <tibble [12 x 5]>
##  7     Austria    Europe <tibble [12 x 4]> <S3: lm> <tibble [12 x 5]>
##  8     Bahrain      Asia <tibble [12 x 4]> <S3: lm> <tibble [12 x 5]>
##  9  Bangladesh      Asia <tibble [12 x 4]> <S3: lm> <tibble [12 x 5]>
## 10     Belgium    Europe <tibble [12 x 4]> <S3: lm> <tibble [12 x 5]>
## # ... with 132 more rows
```
…
